\relax 
\catcode `"\active 
\select@language{brazil}
\@writefile{toc}{\select@language{brazil}}
\@writefile{lof}{\select@language{brazil}}
\@writefile{lot}{\select@language{brazil}}
\@writefile{toc}{\contentsline {section}{\numberline {1}Introdu\c {c}\IeC {\~a}o}{2}}
\@writefile{toc}{\contentsline {section}{\numberline {2}Selection Sort}{2}}
\bibstyle{h}
\@writefile{toc}{\contentsline {section}{\numberline {3}Merge Sort}{3}}
\@writefile{toc}{\contentsline {section}{\numberline {4}Diferen\c {c}as}{3}}
\@writefile{toc}{\contentsline {section}{\numberline {5}Conclus\IeC {\~a}o}{3}}
\@writefile{toc}{\contentsline {section}{\numberline {6}Refer\^{e}ncias}{3}}
